<?xml version="1.0" encoding="UTF-8" standalone="no"?>
<svg
   xmlns:dc="http://purl.org/dc/elements/1.1/"
   xmlns:cc="http://creativecommons.org/ns#"
   xmlns:rdf="http://www.w3.org/1999/02/22-rdf-syntax-ns#"
   xmlns:svg="http://www.w3.org/2000/svg"
   xmlns="http://www.w3.org/2000/svg"
   xmlns:sodipodi="http://sodipodi.sourceforge.net/DTD/sodipodi-0.dtd"
   xmlns:inkscape="http://www.inkscape.org/namespaces/inkscape"
   width="297mm"
   height="210mm"
   viewBox="0 0 297 210"
   version="1.1"
   id="svg8"
   inkscape:version="1.0.1 (3bc2e813f5, 2020-09-07)"
   sodipodi:docname="grid-systems.svg">
  <defs
     id="defs2" />
  <sodipodi:namedview
     id="base"
     pagecolor="#ffffff"
     bordercolor="#666666"
     borderopacity="1.0"
     inkscape:pageopacity="0.0"
     inkscape:pageshadow="2"
     inkscape:zoom="0.7"
     inkscape:cx="591.17516"
     inkscape:cy="336.7786"
     inkscape:document-units="mm"
     inkscape:current-layer="layer1"
     inkscape:document-rotation="0"
     showgrid="false"
     inkscape:window-width="1920"
     inkscape:window-height="1143"
     inkscape:window-x="0"
     inkscape:window-y="0"
     inkscape:window-maximized="1" />
  <metadata
     id="metadata5">
    <rdf:RDF>
      <cc:Work
         rdf:about="">
        <dc:format>image/svg+xml</dc:format>
        <dc:type
           rdf:resource="http://purl.org/dc/dcmitype/StillImage" />
        <dc:title></dc:title>
      </cc:Work>
    </rdf:RDF>
  </metadata>
  <g
     inkscape:label="Layer 1"
     inkscape:groupmode="layer"
     id="layer1">
    <rect
       style="opacity:0.998;fill:#ffffff;fill-rule:evenodd;stroke:#000000;stroke-width:0.50013"
       id="rect129"
       width="300.92642"
       height="214.57065"
       x="-2.194968"
       y="-2.5183151" />
    <rect
       style="opacity:0.998;fill:#ffffff;fill-rule:evenodd;stroke:#000000;stroke-width:0.494001"
       id="rect10"
       width="22.802"
       height="209.88899"
       x="0.56401134"
       y="-0.085635222" />
    <rect
       style="opacity:0.998;fill:#ffffff;fill-rule:evenodd;stroke:#000000;stroke-width:0.494001"
       id="rect10-3"
       width="22.802"
       height="209.88899"
       x="25.372326"
       y="-0.085633978" />
    <rect
       style="opacity:0.998;fill:#ffffff;fill-rule:evenodd;stroke:#000000;stroke-width:0.494001"
       id="rect10-3-6"
       width="22.802"
       height="209.88899"
       x="50.180641"
       y="-0.085633978" />
    <rect
       style="opacity:0.998;fill:#ffffff;fill-rule:evenodd;stroke:#000000;stroke-width:0.494001"
       id="rect10-5"
       width="22.802"
       height="209.88899"
       x="74.988953"
       y="-0.085635215" />
    <rect
       style="opacity:0.998;fill:#ffffff;fill-rule:evenodd;stroke:#000000;stroke-width:0.494001"
       id="rect10-3-3"
       width="22.802"
       height="209.88899"
       x="99.797264"
       y="-0.085633978" />
    <rect
       style="opacity:0.998;fill:#ffffff;fill-rule:evenodd;stroke:#000000;stroke-width:0.494001"
       id="rect10-3-6-5"
       width="22.802"
       height="209.88899"
       x="124.60558"
       y="-0.085633978" />
    <rect
       style="opacity:0.998;fill:#ffffff;fill-rule:evenodd;stroke:#000000;stroke-width:0.494001"
       id="rect10-5-2"
       width="22.802"
       height="209.88899"
       x="149.41388"
       y="-0.0856352" />
    <rect
       style="opacity:0.998;fill:#ffffff;fill-rule:evenodd;stroke:#000000;stroke-width:0.494001"
       id="rect10-3-3-9"
       width="22.802"
       height="209.88899"
       x="174.22218"
       y="-0.085633978" />
    <rect
       style="opacity:0.998;fill:#ffffff;fill-rule:evenodd;stroke:#000000;stroke-width:0.494001"
       id="rect10-3-6-5-1"
       width="22.802"
       height="209.88899"
       x="199.03049"
       y="-0.085633978" />
    <rect
       style="opacity:0.998;fill:#ffffff;fill-rule:evenodd;stroke:#000000;stroke-width:0.494001"
       id="rect10-5-2-7"
       width="22.802"
       height="209.88899"
       x="223.83879"
       y="-0.085635185" />
    <rect
       style="opacity:0.998;fill:#ffffff;fill-rule:evenodd;stroke:#000000;stroke-width:0.494001"
       id="rect10-3-3-9-0"
       width="22.802"
       height="209.88899"
       x="248.64709"
       y="-0.085633978" />
    <rect
       style="opacity:0.998;fill:#ffffff;fill-rule:evenodd;stroke:#000000;stroke-width:0.494001"
       id="rect10-3-6-5-1-9"
       width="22.802"
       height="209.88899"
       x="273.45541"
       y="-0.085633978" />
    <rect
       style="opacity:0.998;fill:#ffffff;fill-rule:evenodd;stroke:#000000;stroke-width:0.500131"
       id="rect129-6"
       width="300.92642"
       height="214.57066"
       x="-2.1949675"
       y="230.31508" />
    <rect
       style="opacity:0.998;fill:#ffffff;fill-rule:evenodd;stroke:#000000;stroke-width:0.700477"
       id="rect10-0"
       width="45.891521"
       height="209.68251"
       x="0.66724968"
       y="232.85101" />
    <rect
       style="opacity:0.998;fill:#ffffff;fill-rule:evenodd;stroke:#000000;stroke-width:0.700477"
       id="rect10-3-6-6"
       width="45.891521"
       height="209.68251"
       x="50.283878"
       y="232.85101" />
    <rect
       style="opacity:0.998;fill:#ffffff;fill-rule:evenodd;stroke:#000000;stroke-width:0.700477"
       id="rect10-3-3-8"
       width="45.891521"
       height="209.68251"
       x="99.900497"
       y="232.85101" />
    <rect
       style="opacity:0.998;fill:#ffffff;fill-rule:evenodd;stroke:#000000;stroke-width:0.700477"
       id="rect10-5-2-9"
       width="45.891521"
       height="209.68251"
       x="149.51712"
       y="232.85101" />
    <rect
       style="opacity:0.998;fill:#ffffff;fill-rule:evenodd;stroke:#000000;stroke-width:0.700477"
       id="rect10-3-6-5-1-0"
       width="45.891521"
       height="209.68251"
       x="199.13373"
       y="232.85101" />
    <rect
       style="opacity:0.998;fill:#ffffff;fill-rule:evenodd;stroke:#000000;stroke-width:0.700477"
       id="rect10-3-3-9-0-3"
       width="45.891521"
       height="209.68251"
       x="248.75034"
       y="232.85101" />
  </g>
</svg>
